Siri Sagedahl - Project 1: Maps
…
Attaching package: 'fec16'

The following object is masked from 'package:poliscidata':

    states

results_house |>
  group_by(state, district_id) |>
  summarize(N = n())

`summarise()` has grouped output by 'state'. You can override using the
`.groups` argument.

# A tibble: 445 × 3
# Groups:   state [56]
   state district_id     N
   <chr> <chr>       <int>
 1 AK    00             12
 2 AL    01              2
 3 AL    02              4
 4 AL    03              3
 5 AL    04              2
 6 AL    05              2
 7 AL    06              2
 8 AL    07              1
 9 AR    01              2
10 AR    02              4
# ℹ 435 more rows
…
